firstbridge_id,bloomberg_symbol,is_live_listed
b8aa055602bf4e72a6280fbd0a1c1d42,ACZ:CN,True
f4c69a56ee9b4197a66bf986ba43b5ba,ALFA:CN,True
11400a6259cd41308bc2491af04228ec,ARB:CN,True
39546fc55c9f4f13b9e560b9f26b3e01,ATSX:CN,True
7e78f58bacbe4103bb6ae8fdfee3b1d5,AUGB/F:CN,True
646e91db69a04d33b8007b4ced5c1526,BANK:CN,False
45d22a92b2f34d5fbfa97788a12a032a,BASE:CN,True
c5221ec489f943d7bd3424bf972b08f1,BASE/B:CN,True
7296ffea54ea40c2bc9b18453e2f6470,BDIV:CN,True
d4d90a10d9db4706a7d18e51889c6a9c,BFIN:CN,True
f6b51dbc9f354391813013c1fbfc90d8,BFIN/U:CN,True
969f4c9108d1478a8ef1b3eb6f23d269,BGC:CN,True
3fe6afcbd2834c6184c2c7e5abab8c3b,BGU:CN,True
cf24698017a24ff1b973e65d93dfa6f7,BGU/U:CN,True
33bbae7b4e7443458ab64fc5a9d1c35e,BHAV:CN,True
05422e7877ed46b9a3982d7727a8b968,BKL/C:CN,True
d0f9fa59d0c9443e885f8dcc90e6be1c,BKL/F:CN,True
33a791fbc31849c5a8e020f14575f42a,BKL/U:CN,True
aa645e6c10af45f8aac1676fcfc0f9e2,BLCK:CN,True
a3d859c24c55496ab8a29c4f48c1c16e,BLOV:CN,True
fc235a9314094fc99eee7c42eff60025,BNC:CN,True
0b301fba90d3405fb67b57cf5a94b081,BND:CN,True
4ab08ab459684d5d87aa5b50674b2560,BPRF:CN,True
49c1fac5f14444ff8025b56b6bd529ab,BPRF/U:CN,True
748a86f0b1204bd792c3d854d1b6f144,BREA:CN,True
57c635b3a7854393846ae3a17911b1d2,BXF:CN,True
8f640643996d4330aa1fc8dc25e920fe,CACB:CN,True
166e2d2d424e4bca907be0b38a28d54b,CAFR:CN,True
ad498562e48f423b81e7c0374e18c19b,CAGG:CN,True
1dc22e1f9ab54c8c92efff7e57a4437b,CAGS:CN,True
e609308df12d4f2c99ae82d8b07ef7f6,CALL:CN,True
710d85cc554d4010a8bd42df04f151cb,CALL/B:CN,True
4440ab69af884bd2bbf56ca00828188d,CALL/U:CN,True
a75e26bff1b44207bca33136349156ad,CAN:CN,False
b2e2f3c506724523add3c8a079ed5273,CAPS:CN,False
d5807309783d48cb8fc28f3c5486734d,CAPS/U:CN,False
fafa421e4c3c430099959ef0de0f3da4,CAPS/B:CN,False
c03adf344b8344f2a64320d1d6b66373,CARS:CN,True
03fd200b501e4f87afdfcdf19a07e5c9,CARS/B:CN,True
8015763a29284de7bbe4dcf99343d8fc,CARS/U:CN,True
e8b925dc16c7482c9e2bfba934e60451,CBD/A:CN,False
90995b7c817f4860a9e1c1c864cc6d55,CBH:CN,True
c7b573abd73a48bb9e3b2dd07dc67cac,CBH/A:CN,False
79ec5ba15e074d23ba03d1095be37af7,CBN/A:CN,False
a9391443793d43689941e8a79ba5adb1,CBO:CN,True
cf3cf35c7b4548d0b87d52d8335b72b4,CBO/A:CN,False
abe1a73c17fc4ff6ad1541d817e01286,CBQ:CN,False
ce1898c638674c11932d81c2f678392c,CBQ/A:CN,False
ac2a5d1b39084295ae24c1331e8f0578,CCOR:CN,True
18307ab8c77f4336a6fc71aae4a888c8,CCOR/B:CN,True
e5d28628fa54435bb2c3e2e6bfed77f8,CCOR/U:CN,True
8ffb1659bc764a119f2e2740c9347502,CCX:CN,False
38d51bd7886c46909f0ea66515fcfe40,CDLB:CN,True
b5b16fd8f3ea4acb976c924740c153cf,CDLB/B:CN,True
4851a915108b4a44bb3b48fe1710258a,CDLB/U:CN,True
b9b48d368a3f493888d6b5ca9a87bb13,CDZ:CN,True
dd11270e669d42d5addcbc8a25e877a7,CDZ/A:CN,False
99ea6ab21d8b4aba98a0579fa85ed744,CED:CN,False
a7789c445b0a46f09bcead67635eb7dc,CED/A:CN,False
2d379be6ae584f0fa45fe933d5ad8d39,CES:CN,False
a4849aa6a3bc4504a387f97633b4cc95,CES/A:CN,False
5422a85b9e8b428b9342f377c9f8936a,CES/B:CN,False
8c6fa3d8d687417f9c1cce73ecce09bd,CES/D:CN,False
329c2da9ae2d4a76bfbe900321eefb63,CES/U:CN,False
0c69b637e51c4eb681d4453c2bacce13,CES/V:CN,False
e391610bf8304473a08cc9ddd30d2a02,CESG:CN,True
31d1e0b95a64499d9781c5d493c26978,CESG/B:CN,True
cdf59e4b4a35442daab257f05f5739fd,CEW:CN,True
2aef3084ecee435babd31e40ac76fa83,CEW/A:CN,False
713bfa5d364d4af1b4d90bab4300257b,CFLX:CN,True
23bb0dfa493044e4b3b78404834b7cfd,CGAA:CN,True
3b358b409e2641efb9df5b52a472fd27,CGL:CN,True
c6406f22ff8645c5a8f5fd58b28bb83f,CGL/C:CN,True
541d58cf31f74296bbf4c67d8106199f,CGLO:CN,True
b1f591ab1bbf4c2f8be2405f9ef55a5d,CGR:CN,True
36160d52b61d4e82ac9c73ae3c2c9e20,CGR/A:CN,False
927dc0a37d374f6d87070c4e1aceff21,CGRA:CN,True
d2c442317a0b4dca91f406323cf2dbd4,CGRE:CN,True
cabcab376531415795f1a05279175feb,CGXF:CN,True
d76b5b3161ba4b5d8cccfe82647a2d74,CHB:CN,True
d28add6511ec48dc92906910c8cfb000,CHB/A:CN,False
1ef043f26e134f698e2c824779fc5f87,CHNA/B:CN,True
4d6063b3b71c47af85590a741efb7ae1,CIC:CN,True
cfb49614757a4e3b87832165a23d37ab,CIE:CN,True
df1c2d654f82447cb8b5759cacdc323c,CIE/A:CN,False
f4c134ad43384df3a9000dd248c2bb8d,CIF:CN,True
e76eff71c7b043f9a0fa895ac33080db,CIF/A:CN,False
3a5fea8204044313b33d28efadab95ba,CINC:CN,True
1e8b8a2c810d47cc8ab887fdcd84d62f,CINC/B:CN,True
d8ae26831248424f9b71e00fe8d15f7b,CINC/U:CN,True
49d40c8c562149ebbd83a76a7e05fe85,CINF:CN,True
b97d4d8b262c48039e3161f1578960b0,CINT:CN,True
02c63e2c5e274374aa21890737421205,CJP:CN,True
d5681ddcdc894368b7842561afed2fff,CJP/A:CN,False
93f9f09d35dd43a9ac9bf4869b079690,CLF:CN,True
fa6180c50211433d9d901f9dac410318,CLF/A:CN,False
9a04a65db5674a9bb20de1078a3d2bbb,CLG:CN,True
175e8ffcf3ff47a08fdefbcabf573000,CLG/A:CN,False
9804164f17b34c0eafba579608667ed9,CLU:CN,True
534b8f86072f41e4a198fe34a14bf137,CLU/A:CN,False
